{
    "titre": "Le Javascript",
    "img": "js.png",
    "intro": "JavaScript est un langage de programmation de scripts principalement employé dans les pages web interactives mais aussi pour les serveurs avec l'utilisation (par exemple) de Node.js. C'est un langage orienté objet à prototype, c'est-à-dire que les bases du langage et ses principales interfaces sont fournies par des objets qui ne sont pas des instances de classes, mais qui sont chacun équipés de constructeurs permettant de créer leurs propriétés, et notamment une propriété de prototypage qui permet d'en créer des objets héritiers personnalisés. En outre, les fonctions sont des objets de première classe. Le langage supporte le paradigme objet, impératif et fonctionnel. JavaScript est le langage possédant le plus large écosystème grâce à son gestionnaire de dépendances npm, avec environs 500 000 paquets en août 2017.",
    "IDE": "Le code Javascript peut facilement être intégré, puis executé au sein d'une page web directement dans l'HTML dnas une balise <script> ou en reliant un fichier local avec une autre balise script. Pour faire du Javascript il vous faut <ul><li>1) Un fichier.html</li><li>Un fichier.js ( ou pas )</li></ul>",
    "var": "C'est le mot clé \"var\" qui permet de déclarer une variable. Pour déclarer un nombre : on lui donne sa valeur,ou on utilise le mot clé \"ParseInt\". Pour déclarer une chaîne de carcatères, on utilise les guillemets. Pour déclarer un booléen, on utilise le mot clé caractéristique \"True\" ou \"False\". Pour déclarer un tableau, onutilise ces caractères : \"[]\". \"[]\" signifie que le tableau est vide. Pour le remplir, on entre les élementset on les sépare par des virgules. Pour que l'utilisateur saisisse une variable, on utilise le mot clé \"prompt\"",
    "loop": "Les boucles. Il y a principalement deux types de boucles : \"For\" et \"While\" : \"Pour\" et \"Tant que\". \"For\" demande trois conditions : Une initialisations (variable locale déclarée), une condition que doit remplir cette variable, et son incrémentation. \"While\" effectue une action si la condition est respectée. Les conditions. La syntaxe \"if\" est la principale syntaxe de condition : Si la condition est respectée, on applique la méthode.",
    "function": "..",
    "framework": ".."
}